// Jest Snapshot v1, https://goo.gl/fbAQLP

exports[`<Select /> render default 1`] = `
<DocumentFragment>
  <div
    class="form-group"
  >
    <label>
      <div
        class="form-label"
      >
        label
      </div>
      <select
        class="form-select"
      >
        <option
          value=""
        />
      </select>
    </label>
  </div>
</DocumentFragment>
`;
