// Jest Snapshot v1, https://goo.gl/fbAQLP

exports[`<NavFilter /> renders default 1`] = `
<DocumentFragment>
  <div
    class="nav"
  >
    <div
      class="nav-group"
    >
      <div
        class="nav-item"
      >
        <div
          class="loading"
        >
          Loading colors ...
        </div>
      </div>
      <div
        class="nav-item"
      >
        <div
          class="loading"
        >
          Loading manufacturers ...
        </div>
      </div>
      <div
        class="nav-item"
      >
        <button
          class="btn btn-default pull-right"
          type="button"
        >
           Filter 
        </button>
      </div>
    </div>
  </div>
</DocumentFragment>
`;

exports[`<NavFilter /> should render "Color" 1`] = `
<DocumentFragment>
  <div
    class="nav"
  >
    <div
      class="nav-group"
    >
      <div
        class="nav-item"
      >
        <div
          class="loading"
        >
          Loading colors ...
        </div>
      </div>
      <div
        class="nav-item"
      >
        <div
          class="loading"
        >
          Loading manufacturers ...
        </div>
      </div>
      <div
        class="nav-item"
      >
        <button
          class="btn btn-default pull-right"
          type="button"
        >
           Filter 
        </button>
      </div>
    </div>
  </div>
</DocumentFragment>
`;

exports[`<NavFilter /> should render "Filter" 1`] = `
<DocumentFragment>
  <div
    class="nav"
  >
    <div
      class="nav-group"
    >
      <div
        class="nav-item"
      >
        <div
          class="loading"
        >
          Loading colors ...
        </div>
      </div>
      <div
        class="nav-item"
      >
        <div
          class="loading"
        >
          Loading manufacturers ...
        </div>
      </div>
      <div
        class="nav-item"
      >
        <button
          class="btn btn-default pull-right"
          type="button"
        >
           Filter 
        </button>
      </div>
    </div>
  </div>
</DocumentFragment>
`;

exports[`<NavFilter /> should render "Manufacturer" 1`] = `
<DocumentFragment>
  <div
    class="nav"
  >
    <div
      class="nav-group"
    >
      <div
        class="nav-item"
      >
        <div
          class="loading"
        >
          Loading colors ...
        </div>
      </div>
      <div
        class="nav-item"
      >
        <div
          class="loading"
        >
          Loading manufacturers ...
        </div>
      </div>
      <div
        class="nav-item"
      >
        <button
          class="btn btn-default pull-right"
          type="button"
        >
           Filter 
        </button>
      </div>
    </div>
  </div>
</DocumentFragment>
`;
