// Jest Snapshot v1, https://goo.gl/fbAQLP

exports[`<Header /> renders default 1`] = `
<DocumentFragment>
  <div
    class="header"
  >
    <img
      class="logo"
      src="/images/logo.png"
    />
    <div
      class="tab-list"
    >
      <a
        href="/sell"
      >
        Sell
      </a>
      <a
        href="/favorites"
      >
        My Orders
      </a>
      <a
        href="/purchase"
      >
        Purchase
      </a>
      <a
        aria-current="page"
        class="active"
        href="/"
      >
        Dashboard
      </a>
      <a
        href="/i-am-a-random-url"
      >
        Random
      </a>
    </div>
  </div>
  <div
    class="page-container"
  >
    <div
      class="nav"
    >
      <div
        class="nav-group"
      >
        <div
          class="nav-item"
        >
          <div
            class="loading"
          >
            Loading colors ...
          </div>
        </div>
        <div
          class="nav-item"
        >
          <div
            class="loading"
          >
            Loading manufacturers ...
          </div>
        </div>
        <div
          class="nav-item"
        >
          <button
            class="btn btn-default pull-right"
            type="button"
          >
             Filter 
          </button>
        </div>
      </div>
    </div>
    <div
      class="loading"
    >
      Fetching details ...
    </div>
  </div>
</DocumentFragment>
`;
